api/utils/EmbeddedJettyFactoryConstructor.class
api/utils/ResponseError.class
api/articles/ArticleService.class
api/articles/Article.class
api/ApplicationMain.class
api/users/User.class
api/utils/SparkUtils.class
api/utils/RequestLogFactory$1.class
api/utils/RequestLogFactory.class
api/articles/ArticleController.class
api/users/UserService$2.class
api/utils/EmbeddedJettyServerFactory.class
api/articles/ArticleService$2.class
api/articles/ArticleService$1.class
api/utils/JsonUtil.class
api/users/UserController.class
api/users/UserService.class
api/users/UserService$1.class
